\relax 
\@writefile{lot}{\contentsline {table}{\numberline {2}{\ignorespaces  Background fit results for the S2eeT, S2mmT and S2emT regions, for an integrated luminosity of $4.7$\nobreakspace  {}\unhbox \voidb@x \hbox {fb$^{-1}$}. Nominal MC expectations (normalised to MC cross-sections) are given for comparison. The errors shown are the statistical plus systematic uncertainties.}}{2}}
\newlabel{table.results.systematics.in.logL.fit.S2eeT_S2mmT_S2emT}{{2}{2}}
\@setckpt{tmpFiles/MyTableDiLep2SR}{
\setcounter{page}{3}
\setcounter{equation}{0}
\setcounter{enumi}{0}
\setcounter{enumii}{0}
\setcounter{enumiii}{0}
\setcounter{enumiv}{0}
\setcounter{footnote}{0}
\setcounter{mpfootnote}{0}
\setcounter{part}{0}
\setcounter{section}{0}
\setcounter{subsection}{0}
\setcounter{subsubsection}{0}
\setcounter{paragraph}{0}
\setcounter{subparagraph}{0}
\setcounter{figure}{0}
\setcounter{table}{2}
\setcounter{parentequation}{0}
\setcounter{pp@next@reset}{0}
\setcounter{linenumber}{9}
\setcounter{subfigure}{0}
\setcounter{lofdepth}{1}
\setcounter{subtable}{0}
\setcounter{lotdepth}{1}
}
