\relax 
\@writefile{lot}{\contentsline {table}{\numberline {4}{\ignorespaces  Background fit results for the SR7jTEl and SR7jTMu regions, for an integrated luminosity of $4.7$\nobreakspace  {}\unhbox \voidb@x \hbox {fb$^{-1}$}. Nominal MC expectations (normalised to MC cross-sections) are given for comparison. The errors shown are the statistical plus systematic uncertainties.}}{4}}
\newlabel{table.results.systematics.in.logL.fit.SR7jTEl_SR7jTMu}{{4}{4}}
\@setckpt{tmpFiles/MyTableMultiJetsSR}{
\setcounter{page}{5}
\setcounter{equation}{0}
\setcounter{enumi}{0}
\setcounter{enumii}{0}
\setcounter{enumiii}{0}
\setcounter{enumiv}{0}
\setcounter{footnote}{0}
\setcounter{mpfootnote}{0}
\setcounter{part}{0}
\setcounter{section}{0}
\setcounter{subsection}{0}
\setcounter{subsubsection}{0}
\setcounter{paragraph}{0}
\setcounter{subparagraph}{0}
\setcounter{figure}{0}
\setcounter{table}{4}
\setcounter{parentequation}{0}
\setcounter{pp@next@reset}{0}
\setcounter{linenumber}{9}
\setcounter{subfigure}{0}
\setcounter{lofdepth}{1}
\setcounter{subtable}{0}
\setcounter{lotdepth}{1}
}
