point,CLsexp,CLsexpu1S,CLsexpd1S,CLsobs
100017999,0.2504316406159759,0.52375418092754,0.0996200862586549,0.2504315380785249
100029771,0.9791058718626292,0.9923691629235483,0.9605798537831127,0.9791062772206475
100030028,3.168140644707666e-05,0.0009342886109507755,7.73984754704516e-07,3.168152012713857e-05
100042885,0.2801857502023912,0.5564396011738285,0.1182895199464203,0.2801857136254909
100043096,4.190892140976678e-08,4.381948500555421e-06,2.840988135567844e-10,4.1914938604572845e-08
100050341,0.8779664587582645,0.9524630612092355,0.7837297761593097,0.8780047888871665
100053663,0.49364701501280916,0.7414338490514509,0.2901929224548588,0.49364727708077516
100056910,0.3952165585935635,0.6650551791448208,0.20259466991316252,0.39521654525634475
100057332,0.7086958729114461,0.8729727355656157,0.5343767779101555,0.7086966981276049
100063421,0.46297748955807894,0.7189663496540046,0.26134165621755323,0.46297749221237455
100094639,0.7582888039937882,0.8981057155406889,0.6018248734507987,0.75829161690346
100106729,0.8403127329805957,0.9362531831777429,0.7234548852094002,0.8403799605045779
100130547,0.8933829457129119,0.9588793612894302,0.8092519138513864,0.8934017728468175
100136693,0.30257546786141065,0.579624741023908,0.13318969550049042,0.3025626899588407
100136796,0.006110598824528408,0.04846155908153472,0.0005758286876137535,0.006112411221682648
100142976,0.8945557335555336,0.9593623672337687,0.8112139346002184,0.8945876644917811
100143924,0.6408306058618503,0.8357372790469111,0.4490927052951553,0.6408307087338608
100145187,0.9300533987104681,0.9736486290135337,0.871995316423467,0.9300734273345891
100145581,0.015035079293335042,0.09049650659936537,0.0018914600182350532,0.015035042240484506
100145605,0.8839854185004916,0.95498305385933,0.7936349657013395,0.8840191928272131
100148114,1.1099189971651459e-210,1.1732170192393581e-197,7.242213450347653e-224,1.1098080737274972e-210
100152331,0.03396195546483165,0.15599486128997053,0.00568938414667411,0.03396662267313131
100165786,0.5949069545841674,0.8084689633247847,0.395785562216001,0.5949069290706696
100167868,0.9397879874842991,0.9774560582252627,0.8891438065129671,0.9397888762612489
100185078,5.524146902935232e-19,1.6414814411721932e-15,1.2961167093978479e-22,5.524268611367028e-19
100195726,0.002397124900863773,0.02480966419637076,0.0001713223679426634,0.002398099381975895
