C1N2_WZ_1000_0
C1N2_WZ_1000_100
C1N2_WZ_1000_200
C1N2_WZ_1000_300
C1N2_WZ_1000_400
C1N2_WZ_1000_500
C1N2_WZ_1100_0
C1N2_WZ_1100_100
C1N2_WZ_1100_200
C1N2_WZ_1100_300
C1N2_WZ_1100_400
C1N2_WZ_1100_500
C1N2_WZ_1200_0
C1N2_WZ_1200_100
C1N2_WZ_1200_200
C1N2_WZ_1200_300
C1N2_WZ_1200_400
C1N2_WZ_200_0
C1N2_WZ_200_50
C1N2_WZ_300_0
C1N2_WZ_300_100
C1N2_WZ_300_150
C1N2_WZ_400_0
C1N2_WZ_400_150
C1N2_WZ_400_250
C1N2_WZ_400_50
C1N2_WZ_500_0
C1N2_WZ_500_100
C1N2_WZ_500_200
C1N2_WZ_500_300
C1N2_WZ_600_0
C1N2_WZ_600_100
C1N2_WZ_600_200
C1N2_WZ_600_300
C1N2_WZ_600_400
C1N2_WZ_700_0
C1N2_WZ_700_100
C1N2_WZ_700_200
C1N2_WZ_700_300
C1N2_WZ_700_400
C1N2_WZ_700_500
C1N2_WZ_800_0
C1N2_WZ_800_100
C1N2_WZ_800_200
C1N2_WZ_800_300
C1N2_WZ_800_400
C1N2_WZ_800_500
C1N2_WZ_900_100
C1N2_WZ_900_300
C1N2_WZ_900_500
C1N2_WZ_900p0_0p0
C1N2_WZ_900p0_200p0
C1N2_WZ_900p0_400p0
