%!PS-Adobe-2.0 EPSF-2.0
%%BoundingBox:  0 0 567 544
%%Title: : c1
%%Creator: ROOT Version 6.22/06
%%CreationDate: Wed Apr  6 11:05:51 2022
%%DocumentNeededResources: ProcSet (FontSetInit)
%%EndComments
%%BeginProlog
80 dict begin
/s {stroke} def /l {lineto} def /m {moveto} def /t {translate} def
/r {rotate} def /rl {roll}  def /R {repeat} def
/d {rlineto} def /rm {rmoveto} def /gr {grestore} def /f {eofill} def
/c {setrgbcolor} def /black {0 setgray} def /sd {setdash} def
/cl {closepath} def /sf {scalefont setfont} def /lw {setlinewidth} def
/box {m dup 0 exch d exch 0 d 0 exch neg d cl} def
/NC{systemdict begin initclip end}def/C{NC box clip newpath}def
/bl {box s} def /bf {gsave box gsave f grestore 1 lw [] 0 sd s grestore} def /Y { 0 exch d} def /X { 0 d} def 
/K {{pop pop 0 moveto} exch kshow} bind def
/ita {/ang 15 def gsave [1 0 ang dup sin exch cos div 1 0 0] concat} def 
/mp {newpath /y exch def /x exch def} def
/side {[w .77 mul w .23 mul] .385 w mul sd w 0 l currentpoint t -144 r} def
/mr {mp x y w2 0 360 arc} def /m24 {mr s} def /m20 {mr f} def
/mb {mp x y w2 add m w2 neg 0 d 0 w neg d w 0 d 0 w d cl} def
/mt {mp x y w2 add m w2 neg w neg d w 0 d cl} def
/w4 {w 4 div} def
/w6 {w 6 div} def
/w8 {w 8 div} def
/m21 {mb f} def /m25 {mb s} def /m22 {mt f} def /m26{mt s} def
/m23 {mp x y w2 sub m w2 w d w neg 0 d cl f} def
/m27 {mp x y w2 add m w3 neg w2 neg d w3 w2 neg d w3 w2 d cl s} def
/m28 {mp x w2 sub y w2 sub w3 add m w3 0 d  0 w3 neg d w3 0 d 0 w3 d w3 0 d  0 w3 d w3 neg 0 d 0 w3 d w3 neg 0 d 0 w3 neg d w3 neg 0 d cl s } def
/m29 {mp gsave x w2 sub y w2 add w3 sub m currentpoint t 4 {side} repeat cl fill gr} def
/m30 {mp gsave x w2 sub y w2 add w3 sub m currentpoint t 4 {side} repeat cl s gr} def
/m31 {mp x y w2 sub m 0 w d x w2 sub y m w 0 d x w2 .707 mul sub y w2 .707 mul add m w 1.44 div w 1.44 div neg d x w2 .707 mul sub y w2 .707 mul sub m w 1.44 div w 1.44 div d s} def
/m32 {mp x y w2 sub m w2 w d w neg 0 d cl s} def
/m33 {mp x y w2 add m w3 neg w2 neg d w3 w2 neg d w3 w2 d cl f} def
/m34 {mp x w2 sub y w2 sub w3 add m w3 0 d  0 w3 neg d w3 0 d 0 w3 d w3 0 d  0 w3 d w3 neg 0 d 0 w3 d w3 neg 0 d 0 w3 neg d w3 neg 0 d cl f } def
/m35 {mp x y w2 add m w2 neg w2 neg d w2 w2 neg d w2 w2 d w2 neg w2 d x y w2 sub m 0 w d x w2 sub y m w 0 d s} def
/m36 {mb x w2 sub y w2 add m w w neg d x w2 sub y w2 sub m w w d s} def
/m37 {mp x y m w4 neg w2 d w4 neg w2 neg d w2 0 d  w4 neg w2 neg d w2 0 d w4 neg w2 d w2 0 d w4 neg w2 d w4 neg w2 neg d cl s} def
/m38 {mp x w4 sub y w2 add m w4 neg w4 neg d 0 w2 neg d w4 w4 neg d w2 0 d w4 w4 d 0 w2 d w4 neg w4 d w2 neg 0 d x y w2 sub m 0 w d x w2 sub y m w 0 d cl s} def
/m39 {mp x y m w4 neg w2 d w4 neg w2 neg d w2 0 d  w4 neg w2 neg d w2 0 d w4 neg w2 d w2 0 d w4 neg w2 d w4 neg w2 neg d cl f} def
/m40 {mp x y m w4 w2 d w4 w4 neg d w2 neg w4 neg d w2 w4 neg d w4 neg w4 neg d w4 neg w2 d w4 neg w2 neg d w4 neg w4 d w2 w4 d w2 neg w4 d w4 w4 d w4 w2 neg d cl s} def
/m41 {mp x y m w4 w2 d w4 w4 neg d w2 neg w4 neg d w2 w4 neg d w4 neg w4 neg d w4 neg w2 d w4 neg w2 neg d w4 neg w4 d w2 w4 d w2 neg w4 d w4 w4 d w4 w2 neg d cl f} def
/m42 {mp x y w2 add m w8 neg w2 -3 4 div mul d w2 -3 4 div mul w8 neg d w2 3 4 div mul w8 neg d w8 w2 -3 4 div mul d w8 w2 3 4 div mul d w2 3 4 div mul w8 d w2 -3 4 div mul w8 d w8 neg w2 3 4 div mul d cl s} def
/m43 {mp x y w2 add m w8 neg w2 -3 4 div mul d w2 -3 4 div mul w8 neg d w2 3 4 div mul w8 neg d w8 w2 -3 4 div mul d w8 w2 3 4 div mul d w2 3 4 div mul w8 d w2 -3 4 div mul w8 d w8 neg w2 3 4 div mul d cl f} def
/m44 {mp x y m w6 neg w2 d w2 2 3 div mul 0 d w6 neg w2 neg d w2 w6 d 0 w2 -2 3 div mul d w2 neg w6 d w6 w2 neg d w2 -2 3 div mul 0 d w6 w2 d w2 neg w6 neg d 0 w2 2 3 div mul d w2 w6 neg d cl s} def
/m45 {mp x y m w6 neg w2 d w2 2 3 div mul 0 d w6 neg w2 neg d w2 w6 d 0 w2 -2 3 div mul d w2 neg w6 d w6 w2 neg d w2 -2 3 div mul 0 d w6 w2 d w2 neg w6 neg d 0 w2 2 3 div mul d w2 w6 neg d cl f} def
/m46 {mp x y w4 add m w4 neg w4 d w4 neg w4 neg d  w4 w4 neg d w4 neg w4 neg d w4 w4 neg d w4 w4 d w4 w4 neg d w4 w4 d w4 neg w4 d w4 w4 d w4 neg w4 d w4 neg w4 neg d cl s} def
/m47 {mp x y w4 add m w4 neg w4 d w4 neg w4 neg d w4 w4 neg d w4 neg w4 neg d  w4 w4 neg d w4 w4 d w4 w4 neg d w4 w4 d w4 neg w4 d w4 w4 d w4 neg w4 d w4 neg w4 neg d cl f} def
/m48 {mp x y w4 add m w4 neg w4 d w4 neg w4 neg d w4 w4 neg d  w4 neg w4 neg d w4 w4 neg d w4 w4 d w4 w4 neg d w4 w4 d w4 neg w4 d w4 w4 d w4 neg w4 d w4 neg w4 neg d  w4 w4 neg d w4 neg w4 neg d w4 neg w4 d w4 w4 d cl f} def
/m49 {mp x w2 sub w3 add y w2 sub w3 add m  0 w3 neg d w3 0 d 0 w3 d w3 0 d 0 w3 d w3 neg 0 d 0 w3 d w3 neg 0 d 0 w3 neg d w3 neg 0 d 0 w3 neg d w3 0 d 0 w3 d w3 0 d 0 w3 neg d w3 neg 0 d cl f } def
/m2 {mp x y w2 sub m 0 w d x w2 sub y m w 0 d s} def
/m5 {mp x w2 .707 mul sub y w2 .707 mul sub m w 1.44 div w 1.44 div d x w2 .707 mul sub y w2 .707 mul add m w 1.44 div w 1.44 div neg d s} def
%%IncludeResource: ProcSet (FontSetInit)
%%IncludeResource: font Times-Roman
%%IncludeResource: font Times-Italic
%%IncludeResource: font Times-Bold
%%IncludeResource: font Times-BoldItalic
%%IncludeResource: font Helvetica
%%IncludeResource: font Helvetica-Oblique
%%IncludeResource: font Helvetica-Bold
%%IncludeResource: font Helvetica-BoldOblique
%%IncludeResource: font Courier
%%IncludeResource: font Courier-Oblique
%%IncludeResource: font Courier-Bold
%%IncludeResource: font Courier-BoldOblique
%%IncludeResource: font Symbol
%%IncludeResource: font ZapfDingbats
/reEncode {exch findfont dup length dict begin {1 index /FID eq  {pop pop} {def} ifelse } forall /Encoding exch def currentdict end dup /FontName get exch definefont pop } def [/Times-Bold /Times-Italic /Times-BoldItalic /Helvetica /Helvetica-Oblique
 /Helvetica-Bold /Helvetica-BoldOblique /Courier /Courier-Oblique /Courier-Bold /Courier-BoldOblique /Times-Roman /AvantGarde-Book /AvantGarde-BookOblique /AvantGarde-Demi /AvantGarde-DemiOblique /Bookman-Demi /Bookman-DemiItalic /Bookman-Light
 /Bookman-LightItalic /Helvetica-Narrow /Helvetica-Narrow-Bold /Helvetica-Narrow-BoldOblique /Helvetica-Narrow-Oblique /NewCenturySchlbk-Roman /NewCenturySchlbk-Bold /NewCenturySchlbk-BoldItalic /NewCenturySchlbk-Italic /Palatino-Bold
 /Palatino-BoldItalic /Palatino-Italic /Palatino-Roman ] {ISOLatin1Encoding reEncode } forall
%%EndProlog
%%BeginSetup
%%EndSetup
newpath  gsave  .25 .25 scale  gsave  0 0 t black[  ] 0 sd 3 lw 1 1 1 c 2268 2176 0 0 bf black 1 1 1 c 2245 1433 0 743 bf black 1 1 1 c 1774 1355 359 750 bf black 1774 1355 359 750 bl 1 1 1 c 1774 1355 359 750 bf black 1774 1355 359 750 bl 359 750 m
 1774 X s 359 784 m -34 Y s 418 767 m -17 Y s 477 767 m -17 Y s 537 767 m -17 Y s 596 767 m -17 Y s 655 784 m -34 Y s 714 767 m -17 Y s 773 767 m -17 Y s 832 767 m -17 Y s 891 767 m -17 Y s 950 784 m -34 Y s 1010 767 m -17 Y s 1069 767 m -17 Y s 1128
 767 m -17 Y s 1187 767 m -17 Y s 1246 784 m -34 Y s 1305 767 m -17 Y s 1364 767 m -17 Y s 1423 767 m -17 Y s 1482 767 m -17 Y s 1542 784 m -34 Y s 1601 767 m -17 Y s 1660 767 m -17 Y s 1719 767 m -17 Y s 1778 767 m -17 Y s 1837 784 m -34 Y s 1896
 767 m -17 Y s 1955 767 m -17 Y s 2015 767 m -17 Y s 2074 767 m -17 Y s 2133 784 m -34 Y s
 gsave  2245 1433 0 743 C -1263.22 209.269 t 0 r /Helvetica findfont 202.014 sf 0 0 m (obs_x_SRHMboostedN1mtWZEM_mt) show NC gr  359 2105 m 1774 X s 359 2071 m 34 Y s 418 2088 m 17 Y s 477 2088 m 17 Y s 537 2088 m 17 Y s 596 2088 m 17 Y s 655 2071 m
 34 Y s 714 2088 m 17 Y s 773 2088 m 17 Y s 832 2088 m 17 Y s 891 2088 m 17 Y s 950 2071 m 34 Y s 1010 2088 m 17 Y s 1069 2088 m 17 Y s 1128 2088 m 17 Y s 1187 2088 m 17 Y s 1246 2071 m 34 Y s 1305 2088 m 17 Y s 1364 2088 m 17 Y s 1423 2088 m 17 Y s
 1482 2088 m 17 Y s 1542 2071 m 34 Y s 1601 2088 m 17 Y s 1660 2088 m 17 Y s 1719 2088 m 17 Y s 1778 2088 m 17 Y s 1837 2071 m 34 Y s 1896 2088 m 17 Y s 1955 2088 m 17 Y s 2015 2088 m 17 Y s 2074 2088 m 17 Y s 2133 2071 m 34 Y s 359 750 m 1355 Y s
 391 750 m -32 X s 391 768 m -32 X s 391 783 m -32 X s 391 797 m -32 X s 423 809 m -64 X s
 gsave  2245 1433 0 743 C 312.001 806.637 t 0 r /Helvetica findfont 60.9855 sf 0 0 m (1) show NC gr 
 gsave  2245 1433 0 743 C 277.757 806.637 t 0 r /Symbol findfont 60.9855 sf 0 0 m (-) show NC gr 
 gsave  2245 1433 0 743 C 175.025 768.589 t 0 r /Helvetica findfont 95.2898 sf 0 0 m (10) show NC gr  391 889 m -32 X s 391 936 m -32 X s 391 969 m -32 X s 391 994 m -32 X s 391 1015 m -32 X s 391 1033 m -32 X s 391 1048 m -32 X s 391 1062 m -32 X s
 423 1074 m -64 X s
 gsave  2245 1433 0 743 C 300.587 1038.74 t 0 r /Helvetica findfont 95.2898 sf 0 0 m (1) show NC gr  391 1154 m -32 X s 391 1200 m -32 X s 391 1233 m -32 X s 391 1259 m -32 X s 391 1280 m -32 X s 391 1298 m -32 X s 391 1313 m -32 X s 391 1327 m -32 X
 s 423 1339 m -64 X s
 gsave  2245 1433 0 743 C 232.099 1305.08 t 0 r /Helvetica findfont 95.2898 sf 0 0 m (10) show NC gr  391 1419 m -32 X s 391 1465 m -32 X s 391 1498 m -32 X s 391 1524 m -32 X s 391 1545 m -32 X s 391 1563 m -32 X s 391 1578 m -32 X s 391 1592 m -32
 X s 423 1604 m -64 X s
 gsave  2245 1433 0 743 C 300.587 1601.86 t 0 r /Helvetica findfont 60.9855 sf 0 0 m (2) show NC gr 
 gsave  2245 1433 0 743 C 197.854 1563.81 t 0 r /Helvetica findfont 95.2898 sf 0 0 m (10) show NC gr  391 1683 m -32 X s 391 1730 m -32 X s 391 1763 m -32 X s 391 1789 m -32 X s 391 1810 m -32 X s 391 1827 m -32 X s 391 1843 m -32 X s 391 1856 m -32
 X s 423 1868 m -64 X s
 gsave  2245 1433 0 743 C 300.587 1872.01 t 0 r /Helvetica findfont 60.9855 sf 0 0 m (3) show NC gr 
 gsave  2245 1433 0 743 C 197.854 1830.15 t 0 r /Helvetica findfont 95.2898 sf 0 0 m (10) show NC gr  391 1948 m -32 X s 391 1995 m -32 X s 391 2028 m -32 X s 391 2054 m -32 X s 391 2075 m -32 X s 391 2092 m -32 X s
 gsave  2245 1433 0 743 C 152.196 1274.64 t 90 r /Helvetica findfont 106.725 sf 0 0 m (Events / 100 GeV) show NC gr  2133 750 m 1355 Y s 2101 750 m 32 X s 2101 768 m 32 X s 2101 783 m 32 X s 2101 797 m 32 X s 2069 809 m 64 X s 2101 889 m 32 X s 2101
 936 m 32 X s 2101 969 m 32 X s 2101 994 m 32 X s 2101 1015 m 32 X s 2101 1033 m 32 X s 2101 1048 m 32 X s 2101 1062 m 32 X s 2069 1074 m 64 X s 2101 1154 m 32 X s 2101 1200 m 32 X s 2101 1233 m 32 X s 2101 1259 m 32 X s 2101 1280 m 32 X s 2101 1298
 m 32 X s 2101 1313 m 32 X s 2101 1327 m 32 X s 2069 1339 m 64 X s 2101 1419 m 32 X s 2101 1465 m 32 X s 2101 1498 m 32 X s 2101 1524 m 32 X s 2101 1545 m 32 X s 2101 1563 m 32 X s 2101 1578 m 32 X s 2101 1592 m 32 X s 2069 1604 m 64 X s 2101 1683 m
 32 X s 2101 1730 m 32 X s 2101 1763 m 32 X s 2101 1789 m 32 X s 2101 1810 m 32 X s 2101 1827 m 32 X s 2101 1843 m 32 X s 2101 1856 m 32 X s 2069 1868 m 64 X s 2101 1948 m 32 X s 2101 1995 m 32 X s 2101 2028 m 32 X s 2101 2054 m 32 X s 2101 2075 m 32
 X s 2101 2092 m 32 X s 6 lw 655 1464 m 9 Y s 655 1473 m cl s 655 1434 m -10 Y s 655 1424 m cl s 1246 1408 m 17 Y s 1246 1425 m cl s 1246 1378 m -18 Y s 1246 1360 m cl s 1837 1295 m 39 Y s 1837 1334 m cl s 1837 1265 m -43 Y s 1837 1222 m cl s 1 1 1 c
 black 3 lw /w 37 def /w2 {w 2 div} def /w3 {w 3 div} def 655 1449 1246 1393 1837 1280 3 { m20} R 6 lw 12 lw 1 1 1 c black 359 750 m 685 Y s 359 1435 m 591 X -80 Y 592 X -118 Y 591 X -487 Y s 1 0.6 0 c 9 lw black 3 lw 1 0.6 0 c 359 750 m 685 Y 591 X
 -80 Y 592 X -118 Y 591 X -487 Y f 9 lw black 3 lw 1 0.6 0 c 359 750 m 685 Y 591 X -80 Y 592 X -119 Y 591 X -486 Y f 9 lw black 3 lw 1 0.6 0 c 359 750 m 684 Y 591 X -80 Y 592 X -118 Y 591 X -486 Y f 9 lw black 3 lw 1 0.6 0 c 359 750 m 684 Y 591 X -80
 Y 592 X -118 Y 591 X -486 Y f 9 lw 0.6 1 0.6 c black 3 lw 0.6 1 0.6 c 359 750 m 684 Y 591 X -80 Y 592 X -118 Y 591 X -486 Y f 9 lw 0 0.6 0 c black 3 lw 0 0.6 0 c 359 750 m 677 Y 591 X -79 Y 592 X -116 Y 591 X -482 Y f 9 lw 0.2 0.6 1 c black 3 lw 0.2
 0.6 1 c 359 750 m 673 Y 591 X -80 Y 592 X -115 Y 591 X -478 Y f 9 lw 1 0.6 0 c black 3 lw 1 0.6 0 c 359 750 m 298 Y 591 X -98 Y 592 X -155 Y 591 X -45 Y f 9 lw black 3 lw 1 lw << /PatternType 1 /PaintType 2 /TilingType 1 /BBox [ 0 0 100 100 ] /XStep
 100 /YStep 100 /PaintProc { begin gsave 0 0 m 100 100 l s gr end } >> [ 0.24 0 0 0.24 0 0 ] makepattern /P04 exch def /cs {[/Pattern /DeviceRGB] setcolorspace} def /FA {f [/DeviceRGB] setcolorspace} def cs 0 0 0 P04 setcolor 359 750 m 699 Y 591 X
 -76 Y 592 X -99 Y 591 X -524 Y 430 Y -591 X 153 Y -592 X 87 Y -591 X -670 Y FA 3 lw black 12 lw 1 1 1 c black 359 750 m 685 Y s 359 1435 m 591 X -80 Y 592 X -118 Y 591 X -487 Y s 6 lw 655 1464 m 9 Y s 655 1473 m cl s 655 1434 m -10 Y s 655 1424 m cl
 s 1246 1408 m 17 Y s 1246 1425 m cl s 1246 1378 m -18 Y s 1246 1360 m cl s 1837 1295 m 39 Y s 1837 1334 m cl s 1837 1265 m -43 Y s 1837 1222 m cl s 1 1 1 c black 3 lw 655 1449 1246 1393 1837 1280 3 { m20} R 6 lw 3 lw 359 750 m 1774 X s 359 784 m -34
 Y s 418 767 m -17 Y s 477 767 m -17 Y s 537 767 m -17 Y s 596 767 m -17 Y s 655 784 m -34 Y s 714 767 m -17 Y s 773 767 m -17 Y s 832 767 m -17 Y s 891 767 m -17 Y s 950 784 m -34 Y s 1010 767 m -17 Y s 1069 767 m -17 Y s 1128 767 m -17 Y s 1187 767
 m -17 Y s 1246 784 m -34 Y s 1305 767 m -17 Y s 1364 767 m -17 Y s 1423 767 m -17 Y s 1482 767 m -17 Y s 1542 784 m -34 Y s 1601 767 m -17 Y s 1660 767 m -17 Y s 1719 767 m -17 Y s 1778 767 m -17 Y s 1837 784 m -34 Y s 1896 767 m -17 Y s 1955 767 m
 -17 Y s 2015 767 m -17 Y s 2074 767 m -17 Y s 2133 784 m -34 Y s 359 2105 m 1774 X s 359 2071 m 34 Y s 418 2088 m 17 Y s 477 2088 m 17 Y s 537 2088 m 17 Y s 596 2088 m 17 Y s 655 2071 m 34 Y s 714 2088 m 17 Y s 773 2088 m 17 Y s 832 2088 m 17 Y s
 891 2088 m 17 Y s 950 2071 m 34 Y s 1010 2088 m 17 Y s 1069 2088 m 17 Y s 1128 2088 m 17 Y s 1187 2088 m 17 Y s 1246 2071 m 34 Y s 1305 2088 m 17 Y s 1364 2088 m 17 Y s 1423 2088 m 17 Y s 1482 2088 m 17 Y s 1542 2071 m 34 Y s 1601 2088 m 17 Y s 1660
 2088 m 17 Y s 1719 2088 m 17 Y s 1778 2088 m 17 Y s 1837 2071 m 34 Y s 1896 2088 m 17 Y s 1955 2088 m 17 Y s 2015 2088 m 17 Y s 2074 2088 m 17 Y s 2133 2071 m 34 Y s 359 750 m 1355 Y s 391 750 m -32 X s 391 768 m -32 X s 391 783 m -32 X s 391 797 m
 -32 X s 423 809 m -64 X s 391 889 m -32 X s 391 936 m -32 X s 391 969 m -32 X s 391 994 m -32 X s 391 1015 m -32 X s 391 1033 m -32 X s 391 1048 m -32 X s 391 1062 m -32 X s 423 1074 m -64 X s 391 1154 m -32 X s 391 1200 m -32 X s 391 1233 m -32 X s
 391 1259 m -32 X s 391 1280 m -32 X s 391 1298 m -32 X s 391 1313 m -32 X s 391 1327 m -32 X s 423 1339 m -64 X s 391 1419 m -32 X s 391 1465 m -32 X s 391 1498 m -32 X s 391 1524 m -32 X s 391 1545 m -32 X s 391 1563 m -32 X s 391 1578 m -32 X s
 391 1592 m -32 X s 423 1604 m -64 X s 391 1683 m -32 X s 391 1730 m -32 X s 391 1763 m -32 X s 391 1789 m -32 X s 391 1810 m -32 X s 391 1827 m -32 X s 391 1843 m -32 X s 391 1856 m -32 X s 423 1868 m -64 X s 391 1948 m -32 X s 391 1995 m -32 X s
 391 2028 m -32 X s 391 2054 m -32 X s 391 2075 m -32 X s 391 2092 m -32 X s 2133 750 m 1355 Y s 2101 750 m 32 X s 2101 768 m 32 X s 2101 783 m 32 X s 2101 797 m 32 X s 2069 809 m 64 X s 2101 889 m 32 X s 2101 936 m 32 X s 2101 969 m 32 X s 2101 994
 m 32 X s 2101 1015 m 32 X s 2101 1033 m 32 X s 2101 1048 m 32 X s 2101 1062 m 32 X s 2069 1074 m 64 X s 2101 1154 m 32 X s 2101 1200 m 32 X s 2101 1233 m 32 X s 2101 1259 m 32 X s 2101 1280 m 32 X s 2101 1298 m 32 X s 2101 1313 m 32 X s 2101 1327 m
 32 X s 2069 1339 m 64 X s 2101 1419 m 32 X s 2101 1465 m 32 X s 2101 1498 m 32 X s 2101 1524 m 32 X s 2101 1545 m 32 X s 2101 1563 m 32 X s 2101 1578 m 32 X s 2101 1592 m 32 X s 2069 1604 m 64 X s 2101 1683 m 32 X s 2101 1730 m 32 X s 2101 1763 m 32
 X s 2101 1789 m 32 X s 2101 1810 m 32 X s 2101 1827 m 32 X s 2101 1843 m 32 X s 2101 1856 m 32 X s 2069 1868 m 64 X s 2101 1948 m 32 X s 2101 1995 m 32 X s 2101 2028 m 32 X s 2101 2054 m 32 X s 2101 2075 m 32 X s 2101 2092 m 32 X s
 gsave  2245 1433 0 743 C 1023.52 1872.01 t 0 r /Helvetica findfont 45.7391 sf 0 0 m (\2551) show NC gr 
 gsave  2245 1433 0 743 C 494.636 1841.57 t 0 r /Helvetica findfont 68.6087 sf 0 0 m ( = 13 TeV, 140 fb) show NC gr 
 gsave  2245 1433 0 743 C 460.392 1841.57 t 0 r /Helvetica findfont 68.6087 sf 0 0 m (s) show NC gr  6 lw 438 1880 m 7 -42 d s 3 lw 445 1838 m 8 61 d s 453 1899 m 42 X s
 gsave  2245 1433 0 743 C 426.148 1959.52 t 0 r /Helvetica-BoldOblique findfont 80.0434 sf 0 0 m (ATLAS) show NC gr 
 gsave  2245 1433 0 743 C 582.149 1716.01 t 0 r /Helvetica findfont 80.0434 sf 0 0 m (SRHM) show NC gr 
 gsave  2245 1433 0 743 C 1198.54 1993.76 t 0 r /Helvetica findfont 80.0434 sf 0 0 m (Data) show NC gr  6 lw 1139 2030 m 12 Y s 1139 1996 m -12 Y s 1139 2042 m cl s 1139 1984 m cl s 3 lw 1139 2013 m20 6 lw
 gsave  2245 1433 0 743 C 1198.54 1898.64 t 0 r /Helvetica findfont 80.0434 sf 0 0 m (Total SM) show NC gr  3 lw cs 0 0 0 P04 setcolor 1096 1883 m 87 X 67 Y -87 X FA 6 lw black 12 lw 1096 1917 m 87 X s
 gsave  2245 1433 0 743 C 1221.37 1799.71 t 0 r /Helvetica findfont 80.0434 sf 0 0 m (t) show NC gr  6 lw 1221 1864 m 23 X s
 gsave  2245 1433 0 743 C 1198.54 1799.71 t 0 r /Helvetica findfont 80.0434 sf 0 0 m (t) show NC gr  0.6 1 0.6 c 3 lw 1096 1786 m 87 X 68 Y -87 X f 6 lw 9 lw 1096 1854 m 87 X s 1096 1786 m 87 X s 1183 1786 m 68 Y s 1096 1786 m 68 Y s black
 gsave  2245 1433 0 743 C 1198.54 1704.59 t 0 r /Helvetica findfont 80.0434 sf 0 0 m (W+jets) show NC gr  0.2 0.6 1 c 3 lw 1096 1689 m 87 X 68 Y -87 X f 9 lw 1096 1757 m 87 X s 1096 1689 m 87 X s 1183 1689 m 68 Y s 1096 1689 m 68 Y s black
 gsave  2245 1433 0 743 C 1704.59 1944.3 t 0 r /Helvetica findfont 80.0434 sf 0 0 m (Single top) show NC gr  0 0.6 0 c 3 lw 1592 1897 m 94 X 136 Y -94 X f 9 lw 1592 2033 m 94 X s 1592 1897 m 94 X s 1686 1897 m 136 Y s 1592 1897 m 136 Y s black
 gsave  2245 1433 0 743 C 1704.59 1742.64 t 0 r /Helvetica findfont 80.0434 sf 0 0 m (Others) show NC gr  1 0.6 0 c 3 lw 1592 1704 m 94 X 135 Y -94 X f 9 lw 1592 1839 m 94 X s 1592 1704 m 94 X s 1686 1704 m 135 Y s 1592 1704 m 135 Y s black 3 lw 1 1
 1 c 2245 696 0 22 bf black 1 1 1 c 1774 449 359 266 bf black 1774 449 359 266 bl 1 1 1 c 1774 449 359 266 bf black 1774 449 359 266 bl 359 266 m 1774 X s 359 299 m -33 Y s 458 282 m -16 Y s 556 282 m -16 Y s 655 282 m -16 Y s 753 282 m -16 Y s 852
 282 m -16 Y s 950 299 m -33 Y s 1049 282 m -16 Y s 1147 282 m -16 Y s 1246 282 m -16 Y s 1345 282 m -16 Y s 1443 282 m -16 Y s 1542 299 m -33 Y s 1640 282 m -16 Y s 1739 282 m -16 Y s 1837 282 m -16 Y s 1936 282 m -16 Y s 2034 282 m -16 Y s 2133 299
 m -33 Y s
 gsave  2245 696 0 22 C 273.952 156.001 t 0 r /Helvetica findfont 98.9489 sf 0 0 m (150) show NC gr 
 gsave  2245 696 0 22 C 863.711 156.001 t 0 r /Helvetica findfont 98.9489 sf 0 0 m (250) show NC gr 
 gsave  2245 696 0 22 C 1457.27 156.001 t 0 r /Helvetica findfont 98.9489 sf 0 0 m (350) show NC gr 
 gsave  2245 696 0 22 C 2047.03 156.001 t 0 r /Helvetica findfont 98.9489 sf 0 0 m (450) show NC gr 
 gsave  2245 696 0 22 C 1856.79 60.8783 t 0 r /Helvetica findfont 98.9489 sf 0 0 m ( [GeV]) show NC gr 
 gsave  2245 696 0 22 C 1814.93 34.244 t 0 r /Helvetica findfont 64.6973 sf 0 0 m (T) show NC gr 
 gsave  2245 696 0 22 C 1738.84 60.8783 t 0 r /Helvetica findfont 98.9489 sf 0 0 m (m) show NC gr  359 715 m 1774 X s 359 682 m 33 Y s 458 698 m 17 Y s 556 698 m 17 Y s 655 698 m 17 Y s 753 698 m 17 Y s 852 698 m 17 Y s 950 682 m 33 Y s 1049 698 m 17
 Y s 1147 698 m 17 Y s 1246 698 m 17 Y s 1345 698 m 17 Y s 1443 698 m 17 Y s 1542 682 m 33 Y s 1640 698 m 17 Y s 1739 698 m 17 Y s 1837 698 m 17 Y s 1936 698 m 17 Y s 2034 698 m 17 Y s 2133 682 m 33 Y s 359 266 m 449 Y s 403 266 m -44 X s 381 305 m
 -22 X s 381 344 m -22 X s 381 383 m -22 X s 381 422 m -22 X s 403 461 m -44 X s 381 500 m -22 X s 381 539 m -22 X s 381 578 m -22 X s 381 617 m -22 X s 403 656 m -44 X s 403 656 m -44 X s 381 695 m -22 X s
 gsave  2245 696 0 22 C 258.733 228.294 t 0 r /Helvetica findfont 102.755 sf 0 0 m (0) show NC gr 
 gsave  2245 696 0 22 C 273.952 422.343 t 0 r /Helvetica findfont 102.755 sf 0 0 m (1) show NC gr 
 gsave  2245 696 0 22 C 258.733 616.393 t 0 r /Helvetica findfont 102.755 sf 0 0 m (2) show NC gr 
 gsave  2245 696 0 22 C 140.781 266.343 t 90 r /Helvetica findfont 102.755 sf 0 0 m (Data / SM) show NC gr  2133 266 m 449 Y s 2089 266 m 44 X s 2111 305 m 22 X s 2111 344 m 22 X s 2111 383 m 22 X s 2111 422 m 22 X s 2089 461 m 44 X s 2111 500 m 22 X
 s 2111 539 m 22 X s 2111 578 m 22 X s 2111 617 m 22 X s 2089 656 m 44 X s 2089 656 m 44 X s 2111 695 m 22 X s 0.4 0.4 0.6 c 6 lw black 3 lw cs 0 0 0 P04 setcolor 359 266 m 219 Y 591 X 10 Y 592 X 42 Y 591 X -271 Y 119 Y -591 X 42 Y -592 X 10 Y -591 X
 -171 Y FA 6 lw black 655 485 m 53 Y s 655 538 m cl s 655 485 m -42 Y s 655 443 m cl s 1246 537 m 87 Y s 1246 624 m cl s 1246 537 m -67 Y s 1246 470 m cl s 1837 551 m 164 Y s 1837 715 m cl s 1837 551 m -114 Y s 1837 437 m cl s 1 1 1 c black 3 lw 655
 485 1246 537 1837 551 3 { m20} R 6 lw 3 lw 359 266 m 1774 X s 359 299 m -33 Y s 458 282 m -16 Y s 556 282 m -16 Y s 655 282 m -16 Y s 753 282 m -16 Y s 852 282 m -16 Y s 950 299 m -33 Y s 1049 282 m -16 Y s 1147 282 m -16 Y s 1246 282 m -16 Y s 1345
 282 m -16 Y s 1443 282 m -16 Y s 1542 299 m -33 Y s 1640 282 m -16 Y s 1739 282 m -16 Y s 1837 282 m -16 Y s 1936 282 m -16 Y s 2034 282 m -16 Y s 2133 299 m -33 Y s 359 715 m 1774 X s 359 682 m 33 Y s 458 698 m 17 Y s 556 698 m 17 Y s 655 698 m 17
 Y s 753 698 m 17 Y s 852 698 m 17 Y s 950 682 m 33 Y s 1049 698 m 17 Y s 1147 698 m 17 Y s 1246 698 m 17 Y s 1345 698 m 17 Y s 1443 698 m 17 Y s 1542 682 m 33 Y s 1640 698 m 17 Y s 1739 698 m 17 Y s 1837 698 m 17 Y s 1936 698 m 17 Y s 2034 698 m 17
 Y s 2133 682 m 33 Y s 359 266 m 449 Y s 403 266 m -44 X s 381 305 m -22 X s 381 344 m -22 X s 381 383 m -22 X s 381 422 m -22 X s 403 461 m -44 X s 381 500 m -22 X s 381 539 m -22 X s 381 578 m -22 X s 381 617 m -22 X s 403 656 m -44 X s 403 656 m
 -44 X s 381 695 m -22 X s 2133 266 m 449 Y s 2089 266 m 44 X s 2111 305 m 22 X s 2111 344 m 22 X s 2111 383 m 22 X s 2111 422 m 22 X s 2089 461 m 44 X s 2111 500 m 22 X s 2111 539 m 22 X s 2111 578 m 22 X s 2111 617 m 22 X s 2089 656 m 44 X s 2089
 656 m 44 X s 2111 695 m 22 X s 9 lw 0.95 0.95 0.95 c black 368 461 m 869 X s 1237 461 m 869 X s 2106 461 m 18 X s
 gr  gr showpage
end
%%EOF
